EESchema Schematic File Version 4
LIBS:fdd-cache
EELAYER 26 0
EELAYER END
$Descr A4 11693 8268
encoding utf-8
Sheet 1 1
Title ""
Date ""
Rev ""
Comp ""
Comment1 ""
Comment2 ""
Comment3 ""
Comment4 ""
$EndDescr
$Comp
L Proto_FeatherWing-eagle-import:FEATHERWING MS1
U 1 1 5C5C6FAD
P 9600 2400
F 0 "MS1" H 9600 2400 50  0001 C CNN
F 1 "FEATHERWING" H 9600 2400 50  0001 C CNN
F 2 "Adafruit:FEATHERWING" H 9600 2400 50  0001 C CNN
F 3 "" H 9600 2400 50  0001 C CNN
	1    9600 2400
	0    1    1    0   
$EndComp
$Comp
L Connector:Screw_Terminal_01x03 J2
U 1 1 5C5C7AF0
P 5000 1200
F 0 "J2" H 5080 1242 50  0000 L CNN
F 1 "Screw_Terminal_01x03" H 5080 1149 50  0000 L CNN
F 2 "TerminalBlocks_Phoenix:TerminalBlock_Phoenix_MPT-2.54mm_3pol" H 5000 1200 50  0001 C CNN
F 3 "~" H 5000 1200 50  0001 C CNN
	1    5000 1200
	1    0    0    -1  
$EndComp
$Comp
L Adafruit-FONA-800-GSM-Breakout-eagle-import:GND #U0101
U 1 1 5C5C87BD
P 4800 1400
F 0 "#U0101" H 4850 1450 50  0001 C CNN
F 1 "GND" H 4881 1436 42  0000 L CNN
F 2 "" H 4800 1400 50  0001 C CNN
F 3 "" H 4800 1400 50  0001 C CNN
	1    4800 1400
	1    0    0    -1  
$EndComp
$Comp
L power:VCC #PWR0101
U 1 1 5C5C8866
P 4800 1100
F 0 "#PWR0101" H 4800 950 50  0001 C CNN
F 1 "VCC" H 4817 1277 50  0000 C CNN
F 2 "" H 4800 1100 50  0001 C CNN
F 3 "" H 4800 1100 50  0001 C CNN
	1    4800 1100
	1    0    0    -1  
$EndComp
Text GLabel 4350 1200 0    50   Input ~ 0
One_wire_bus
$Comp
L Connector:Screw_Terminal_01x03 J3
U 1 1 5C5C9635
P 5000 1800
F 0 "J3" H 5080 1842 50  0000 L CNN
F 1 "Screw_Terminal_01x03" H 5080 1749 50  0000 L CNN
F 2 "TerminalBlocks_Phoenix:TerminalBlock_Phoenix_MPT-2.54mm_3pol" H 5000 1800 50  0001 C CNN
F 3 "~" H 5000 1800 50  0001 C CNN
	1    5000 1800
	1    0    0    -1  
$EndComp
$Comp
L Adafruit-FONA-800-GSM-Breakout-eagle-import:GND #U0102
U 1 1 5C5C963B
P 4800 2000
F 0 "#U0102" H 4850 2050 50  0001 C CNN
F 1 "GND" H 4881 2036 42  0000 L CNN
F 2 "" H 4800 2000 50  0001 C CNN
F 3 "" H 4800 2000 50  0001 C CNN
	1    4800 2000
	1    0    0    -1  
$EndComp
$Comp
L power:VCC #PWR0102
U 1 1 5C5C9641
P 4800 1700
F 0 "#PWR0102" H 4800 1550 50  0001 C CNN
F 1 "VCC" H 4817 1877 50  0000 C CNN
F 2 "" H 4800 1700 50  0001 C CNN
F 3 "" H 4800 1700 50  0001 C CNN
	1    4800 1700
	1    0    0    -1  
$EndComp
$Comp
L Connector:Screw_Terminal_01x03 J4
U 1 1 5C5C9802
P 5000 2400
F 0 "J4" H 5080 2442 50  0000 L CNN
F 1 "Screw_Terminal_01x03" H 5080 2349 50  0000 L CNN
F 2 "TerminalBlocks_Phoenix:TerminalBlock_Phoenix_MPT-2.54mm_3pol" H 5000 2400 50  0001 C CNN
F 3 "~" H 5000 2400 50  0001 C CNN
	1    5000 2400
	1    0    0    -1  
$EndComp
$Comp
L Adafruit-FONA-800-GSM-Breakout-eagle-import:GND #U0103
U 1 1 5C5C9808
P 4800 2600
F 0 "#U0103" H 4850 2650 50  0001 C CNN
F 1 "GND" H 4881 2636 42  0000 L CNN
F 2 "" H 4800 2600 50  0001 C CNN
F 3 "" H 4800 2600 50  0001 C CNN
	1    4800 2600
	1    0    0    -1  
$EndComp
$Comp
L power:VCC #PWR0103
U 1 1 5C5C980E
P 4800 2300
F 0 "#PWR0103" H 4800 2150 50  0001 C CNN
F 1 "VCC" H 4817 2477 50  0000 C CNN
F 2 "" H 4800 2300 50  0001 C CNN
F 3 "" H 4800 2300 50  0001 C CNN
	1    4800 2300
	1    0    0    -1  
$EndComp
$Comp
L Connector:Screw_Terminal_01x03 J5
U 1 1 5C5C9815
P 5000 3000
F 0 "J5" H 5080 3042 50  0000 L CNN
F 1 "Screw_Terminal_01x03" H 5080 2949 50  0000 L CNN
F 2 "TerminalBlocks_Phoenix:TerminalBlock_Phoenix_MPT-2.54mm_3pol" H 5000 3000 50  0001 C CNN
F 3 "~" H 5000 3000 50  0001 C CNN
	1    5000 3000
	1    0    0    -1  
$EndComp
$Comp
L Adafruit-FONA-800-GSM-Breakout-eagle-import:GND #U0104
U 1 1 5C5C981B
P 4800 3200
F 0 "#U0104" H 4850 3250 50  0001 C CNN
F 1 "GND" H 4881 3236 42  0000 L CNN
F 2 "" H 4800 3200 50  0001 C CNN
F 3 "" H 4800 3200 50  0001 C CNN
	1    4800 3200
	1    0    0    -1  
$EndComp
$Comp
L power:VCC #PWR0104
U 1 1 5C5C9821
P 4800 2900
F 0 "#PWR0104" H 4800 2750 50  0001 C CNN
F 1 "VCC" H 4817 3077 50  0000 C CNN
F 2 "" H 4800 2900 50  0001 C CNN
F 3 "" H 4800 2900 50  0001 C CNN
	1    4800 2900
	1    0    0    -1  
$EndComp
$Comp
L Connector:Screw_Terminal_01x03 J6
U 1 1 5C5C9A50
P 5000 3600
F 0 "J6" H 5080 3642 50  0000 L CNN
F 1 "Screw_Terminal_01x03" H 5080 3549 50  0000 L CNN
F 2 "TerminalBlocks_Phoenix:TerminalBlock_Phoenix_MPT-2.54mm_3pol" H 5000 3600 50  0001 C CNN
F 3 "~" H 5000 3600 50  0001 C CNN
	1    5000 3600
	1    0    0    -1  
$EndComp
$Comp
L Adafruit-FONA-800-GSM-Breakout-eagle-import:GND #U0105
U 1 1 5C5C9A56
P 4800 3800
F 0 "#U0105" H 4850 3850 50  0001 C CNN
F 1 "GND" H 4881 3836 42  0000 L CNN
F 2 "" H 4800 3800 50  0001 C CNN
F 3 "" H 4800 3800 50  0001 C CNN
	1    4800 3800
	1    0    0    -1  
$EndComp
$Comp
L power:VCC #PWR0105
U 1 1 5C5C9A5C
P 4800 3500
F 0 "#PWR0105" H 4800 3350 50  0001 C CNN
F 1 "VCC" H 4817 3677 50  0000 C CNN
F 2 "" H 4800 3500 50  0001 C CNN
F 3 "" H 4800 3500 50  0001 C CNN
	1    4800 3500
	1    0    0    -1  
$EndComp
$Comp
L Connector:Screw_Terminal_01x03 J7
U 1 1 5C5C9A63
P 5000 4200
F 0 "J7" H 5080 4242 50  0000 L CNN
F 1 "Screw_Terminal_01x03" H 5080 4149 50  0000 L CNN
F 2 "TerminalBlocks_Phoenix:TerminalBlock_Phoenix_MPT-2.54mm_3pol" H 5000 4200 50  0001 C CNN
F 3 "~" H 5000 4200 50  0001 C CNN
	1    5000 4200
	1    0    0    -1  
$EndComp
$Comp
L Adafruit-FONA-800-GSM-Breakout-eagle-import:GND #U0106
U 1 1 5C5C9A69
P 4800 4400
F 0 "#U0106" H 4850 4450 50  0001 C CNN
F 1 "GND" H 4881 4436 42  0000 L CNN
F 2 "" H 4800 4400 50  0001 C CNN
F 3 "" H 4800 4400 50  0001 C CNN
	1    4800 4400
	1    0    0    -1  
$EndComp
$Comp
L power:VCC #PWR0106
U 1 1 5C5C9A6F
P 4800 4100
F 0 "#PWR0106" H 4800 3950 50  0001 C CNN
F 1 "VCC" H 4817 4277 50  0000 C CNN
F 2 "" H 4800 4100 50  0001 C CNN
F 3 "" H 4800 4100 50  0001 C CNN
	1    4800 4100
	1    0    0    -1  
$EndComp
Wire Wire Line
	4800 1200 4500 1200
Wire Wire Line
	4500 1200 4500 1800
Wire Wire Line
	4500 3600 4800 3600
Connection ~ 4500 1200
Wire Wire Line
	4500 1200 4350 1200
Wire Wire Line
	4800 3000 4500 3000
Connection ~ 4500 3000
Wire Wire Line
	4500 3000 4500 3600
Wire Wire Line
	4800 2400 4500 2400
Connection ~ 4500 2400
Wire Wire Line
	4500 2400 4500 3000
Wire Wire Line
	4800 1800 4500 1800
Connection ~ 4500 1800
Wire Wire Line
	4500 1800 4500 2400
Wire Wire Line
	4800 4200 4500 4200
Wire Wire Line
	4500 4200 4500 3600
Connection ~ 4500 3600
$Comp
L Adafruit-FONA-800-GSM-Breakout-eagle-import:AUDIO_3.5MMJACK_4POL X1
U 1 1 5C5CA92F
P 1850 1200
F 0 "X1" H 1841 1564 42  0000 C CNN
F 1 "AUDIO_3.5MMJACK_4POL" H 1841 1484 42  0000 C CNN
F 2 "Adafruit-FONA-800-GSM-Breakout:4UCONN_18510" H 1850 1200 50  0001 C CNN
F 3 "" H 1850 1200 50  0001 C CNN
	1    1850 1200
	1    0    0    -1  
$EndComp
$Comp
L power:VCC #PWR0107
U 1 1 5C5CAD22
P 2400 1000
F 0 "#PWR0107" H 2400 850 50  0001 C CNN
F 1 "VCC" H 2417 1177 50  0000 C CNN
F 2 "" H 2400 1000 50  0001 C CNN
F 3 "" H 2400 1000 50  0001 C CNN
	1    2400 1000
	1    0    0    -1  
$EndComp
Text Notes 1500 1050 0    50   ~ 0
3
Text Notes 1500 1200 0    50   ~ 0
2
Text Notes 1500 1300 0    50   ~ 0
4
Text Notes 1500 1450 0    50   ~ 0
1
Text GLabel 2900 1200 2    50   Input ~ 0
SDI-12-BUS
$Comp
L Adafruit-FONA-800-GSM-Breakout-eagle-import:GND #U0107
U 1 1 5C5CBB7F
P 2400 1400
F 0 "#U0107" H 2450 1450 50  0001 C CNN
F 1 "GND" H 2481 1436 42  0000 L CNN
F 2 "" H 2400 1400 50  0001 C CNN
F 3 "" H 2400 1400 50  0001 C CNN
	1    2400 1400
	1    0    0    -1  
$EndComp
Wire Wire Line
	2050 1300 2400 1300
Wire Wire Line
	2050 1000 2400 1000
$Comp
L Adafruit-FONA-800-GSM-Breakout-eagle-import:AUDIO_3.5MMJACK_4POL X2
U 1 1 5C5CC658
P 1850 2150
F 0 "X2" H 1841 2514 42  0000 C CNN
F 1 "AUDIO_3.5MMJACK_4POL" H 1841 2434 42  0000 C CNN
F 2 "Adafruit-FONA-800-GSM-Breakout:4UCONN_18510" H 1850 2150 50  0001 C CNN
F 3 "" H 1850 2150 50  0001 C CNN
	1    1850 2150
	1    0    0    -1  
$EndComp
$Comp
L power:VCC #PWR0108
U 1 1 5C5CC65F
P 2400 1950
F 0 "#PWR0108" H 2400 1800 50  0001 C CNN
F 1 "VCC" H 2417 2127 50  0000 C CNN
F 2 "" H 2400 1950 50  0001 C CNN
F 3 "" H 2400 1950 50  0001 C CNN
	1    2400 1950
	1    0    0    -1  
$EndComp
Text Notes 1500 2000 0    50   ~ 0
3
Text Notes 1500 2150 0    50   ~ 0
2
Text Notes 1500 2250 0    50   ~ 0
4
Text Notes 1500 2400 0    50   ~ 0
1
$Comp
L Adafruit-FONA-800-GSM-Breakout-eagle-import:GND #U0108
U 1 1 5C5CC669
P 2400 2350
F 0 "#U0108" H 2450 2400 50  0001 C CNN
F 1 "GND" H 2481 2386 42  0000 L CNN
F 2 "" H 2400 2350 50  0001 C CNN
F 3 "" H 2400 2350 50  0001 C CNN
	1    2400 2350
	1    0    0    -1  
$EndComp
Wire Wire Line
	2050 2250 2400 2250
Wire Wire Line
	2050 1950 2400 1950
$Comp
L Adafruit-FONA-800-GSM-Breakout-eagle-import:AUDIO_3.5MMJACK_4POL X3
U 1 1 5C5CC8ED
P 1850 3000
F 0 "X3" H 1841 3364 42  0000 C CNN
F 1 "AUDIO_3.5MMJACK_4POL" H 1841 3284 42  0000 C CNN
F 2 "Adafruit-FONA-800-GSM-Breakout:4UCONN_18510" H 1850 3000 50  0001 C CNN
F 3 "" H 1850 3000 50  0001 C CNN
	1    1850 3000
	1    0    0    -1  
$EndComp
$Comp
L power:VCC #PWR0109
U 1 1 5C5CC8F4
P 2400 2800
F 0 "#PWR0109" H 2400 2650 50  0001 C CNN
F 1 "VCC" H 2417 2977 50  0000 C CNN
F 2 "" H 2400 2800 50  0001 C CNN
F 3 "" H 2400 2800 50  0001 C CNN
	1    2400 2800
	1    0    0    -1  
$EndComp
Text Notes 1500 2850 0    50   ~ 0
3
Text Notes 1500 3000 0    50   ~ 0
2
Text Notes 1500 3100 0    50   ~ 0
4
Text Notes 1500 3250 0    50   ~ 0
1
$Comp
L Adafruit-FONA-800-GSM-Breakout-eagle-import:GND #U0109
U 1 1 5C5CC8FE
P 2400 3200
F 0 "#U0109" H 2450 3250 50  0001 C CNN
F 1 "GND" H 2481 3236 42  0000 L CNN
F 2 "" H 2400 3200 50  0001 C CNN
F 3 "" H 2400 3200 50  0001 C CNN
	1    2400 3200
	1    0    0    -1  
$EndComp
Wire Wire Line
	2050 3100 2400 3100
Wire Wire Line
	2050 2800 2400 2800
$Comp
L Adafruit-FONA-800-GSM-Breakout-eagle-import:AUDIO_3.5MMJACK_4POL X4
U 1 1 5C5CCAEE
P 1850 3850
F 0 "X4" H 1841 4214 42  0000 C CNN
F 1 "AUDIO_3.5MMJACK_4POL" H 1841 4134 42  0000 C CNN
F 2 "Adafruit-FONA-800-GSM-Breakout:4UCONN_18510" H 1850 3850 50  0001 C CNN
F 3 "" H 1850 3850 50  0001 C CNN
	1    1850 3850
	1    0    0    -1  
$EndComp
$Comp
L power:VCC #PWR0110
U 1 1 5C5CCAF5
P 2400 3650
F 0 "#PWR0110" H 2400 3500 50  0001 C CNN
F 1 "VCC" H 2417 3827 50  0000 C CNN
F 2 "" H 2400 3650 50  0001 C CNN
F 3 "" H 2400 3650 50  0001 C CNN
	1    2400 3650
	1    0    0    -1  
$EndComp
Text Notes 1500 3700 0    50   ~ 0
3
Text Notes 1500 3850 0    50   ~ 0
2
Text Notes 1500 3950 0    50   ~ 0
4
Text Notes 1500 4100 0    50   ~ 0
1
$Comp
L Adafruit-FONA-800-GSM-Breakout-eagle-import:GND #U0110
U 1 1 5C5CCAFF
P 2400 4050
F 0 "#U0110" H 2450 4100 50  0001 C CNN
F 1 "GND" H 2481 4086 42  0000 L CNN
F 2 "" H 2400 4050 50  0001 C CNN
F 3 "" H 2400 4050 50  0001 C CNN
	1    2400 4050
	1    0    0    -1  
$EndComp
Wire Wire Line
	2050 3950 2400 3950
Wire Wire Line
	2050 3650 2400 3650
$Comp
L Adafruit-FONA-800-GSM-Breakout-eagle-import:AUDIO_3.5MMJACK_4POL X5
U 1 1 5C5CCE8D
P 1850 4700
F 0 "X5" H 1841 5064 42  0000 C CNN
F 1 "AUDIO_3.5MMJACK_4POL" H 1841 4984 42  0000 C CNN
F 2 "Adafruit-FONA-800-GSM-Breakout:4UCONN_18510" H 1850 4700 50  0001 C CNN
F 3 "" H 1850 4700 50  0001 C CNN
	1    1850 4700
	1    0    0    -1  
$EndComp
$Comp
L power:VCC #PWR0111
U 1 1 5C5CCE94
P 2400 4500
F 0 "#PWR0111" H 2400 4350 50  0001 C CNN
F 1 "VCC" H 2417 4677 50  0000 C CNN
F 2 "" H 2400 4500 50  0001 C CNN
F 3 "" H 2400 4500 50  0001 C CNN
	1    2400 4500
	1    0    0    -1  
$EndComp
Text Notes 1500 4550 0    50   ~ 0
3
Text Notes 1500 4700 0    50   ~ 0
2
Text Notes 1500 4800 0    50   ~ 0
4
Text Notes 1500 4950 0    50   ~ 0
1
$Comp
L Adafruit-FONA-800-GSM-Breakout-eagle-import:GND #U0111
U 1 1 5C5CCE9E
P 2400 4900
F 0 "#U0111" H 2450 4950 50  0001 C CNN
F 1 "GND" H 2481 4936 42  0000 L CNN
F 2 "" H 2400 4900 50  0001 C CNN
F 3 "" H 2400 4900 50  0001 C CNN
	1    2400 4900
	1    0    0    -1  
$EndComp
Wire Wire Line
	2050 4800 2400 4800
Wire Wire Line
	2050 4500 2400 4500
$Comp
L Adafruit-FONA-800-GSM-Breakout-eagle-import:AUDIO_3.5MMJACK_4POL X6
U 1 1 5C5CD1A2
P 1850 5550
F 0 "X6" H 1841 5914 42  0000 C CNN
F 1 "AUDIO_3.5MMJACK_4POL" H 1841 5834 42  0000 C CNN
F 2 "Adafruit-FONA-800-GSM-Breakout:4UCONN_18510" H 1850 5550 50  0001 C CNN
F 3 "" H 1850 5550 50  0001 C CNN
	1    1850 5550
	1    0    0    -1  
$EndComp
$Comp
L power:VCC #PWR0112
U 1 1 5C5CD1A9
P 2400 5350
F 0 "#PWR0112" H 2400 5200 50  0001 C CNN
F 1 "VCC" H 2417 5527 50  0000 C CNN
F 2 "" H 2400 5350 50  0001 C CNN
F 3 "" H 2400 5350 50  0001 C CNN
	1    2400 5350
	1    0    0    -1  
$EndComp
Text Notes 1500 5400 0    50   ~ 0
3
Text Notes 1500 5550 0    50   ~ 0
2
Text Notes 1500 5650 0    50   ~ 0
4
Text Notes 1500 5800 0    50   ~ 0
1
$Comp
L Adafruit-FONA-800-GSM-Breakout-eagle-import:GND #U0112
U 1 1 5C5CD1B3
P 2400 5750
F 0 "#U0112" H 2450 5800 50  0001 C CNN
F 1 "GND" H 2481 5786 42  0000 L CNN
F 2 "" H 2400 5750 50  0001 C CNN
F 3 "" H 2400 5750 50  0001 C CNN
	1    2400 5750
	1    0    0    -1  
$EndComp
Wire Wire Line
	2050 5650 2400 5650
Wire Wire Line
	2050 5350 2400 5350
Wire Wire Line
	2100 1200 2800 1200
Wire Wire Line
	2050 2150 2800 2150
Wire Wire Line
	2800 2150 2800 1200
Connection ~ 2800 1200
Wire Wire Line
	2800 1200 2900 1200
Wire Wire Line
	2100 3000 2800 3000
Connection ~ 2800 2150
Wire Wire Line
	2050 3850 2800 3850
Wire Wire Line
	2800 2150 2800 3000
Connection ~ 2800 3000
Wire Wire Line
	2800 3000 2800 3850
Wire Wire Line
	2050 4700 2800 4700
Wire Wire Line
	2800 4700 2800 3850
Connection ~ 2800 3850
Wire Wire Line
	2050 5550 2800 5550
Wire Wire Line
	2800 5550 2800 4700
Connection ~ 2800 4700
$Comp
L Connector:Conn_01x01 AA_BAT1
U 1 1 5C5CFEFD
P 7650 1150
F 0 "AA_BAT1" H 7568 919 50  0000 C CNN
F 1 "Conn_01x01" H 7568 1012 50  0000 C CNN
F 2 "Pin_Headers:Pin_Header_Straight_1x01_Pitch2.54mm" H 7650 1150 50  0001 C CNN
F 3 "~" H 7650 1150 50  0001 C CNN
	1    7650 1150
	-1   0    0    1   
$EndComp
$Comp
L Connector:Conn_01x01 GND1
U 1 1 5C5CFFF2
P 7650 1650
F 0 "GND1" H 7568 1419 50  0000 C CNN
F 1 "Conn_01x01" H 7568 1512 50  0000 C CNN
F 2 "Pin_Headers:Pin_Header_Straight_1x01_Pitch2.54mm" H 7650 1650 50  0001 C CNN
F 3 "~" H 7650 1650 50  0001 C CNN
	1    7650 1650
	-1   0    0    1   
$EndComp
$Comp
L power:+BATT #PWR0113
U 1 1 5C5D029D
P 8250 1150
F 0 "#PWR0113" H 8250 1000 50  0001 C CNN
F 1 "+BATT" H 8265 1327 50  0000 C CNN
F 2 "" H 8250 1150 50  0001 C CNN
F 3 "" H 8250 1150 50  0001 C CNN
	1    8250 1150
	1    0    0    -1  
$EndComp
Wire Wire Line
	7850 1150 8250 1150
$Comp
L Adafruit-FONA-800-GSM-Breakout-eagle-import:GND #U0113
U 1 1 5C5D0BFE
P 7850 1750
F 0 "#U0113" H 7900 1800 50  0001 C CNN
F 1 "GND" H 7931 1786 42  0000 L CNN
F 2 "" H 7850 1750 50  0001 C CNN
F 3 "" H 7850 1750 50  0001 C CNN
	1    7850 1750
	1    0    0    -1  
$EndComp
$EndSCHEMATC
