EESchema Schematic File Version 4
LIBS:fdd-cache
EELAYER 26 0
EELAYER END
$Descr A4 11693 8268
encoding utf-8
Sheet 1 1
Title ""
Date ""
Rev ""
Comp ""
Comment1 ""
Comment2 ""
Comment3 ""
Comment4 ""
$EndDescr
$Comp
L Connector:Screw_Terminal_01x03 J2
U 1 1 5C5C7AF0
P 4200 1100
F 0 "J2" H 4280 1142 50  0000 L CNN
F 1 "Screw_Terminal_01x03" H 4280 1049 50  0000 L CNN
F 2 "TerminalBlocks_Phoenix:TerminalBlock_Phoenix_MPT-2.54mm_3pol" H 4200 1100 50  0001 C CNN
F 3 "~" H 4200 1100 50  0001 C CNN
	1    4200 1100
	1    0    0    -1  
$EndComp
$Comp
L Adafruit-FONA-800-GSM-Breakout-eagle-import:GND #U0101
U 1 1 5C5C87BD
P 4000 1300
F 0 "#U0101" H 4050 1350 50  0001 C CNN
F 1 "GND" H 4081 1336 42  0000 L CNN
F 2 "" H 4000 1300 50  0001 C CNN
F 3 "" H 4000 1300 50  0001 C CNN
	1    4000 1300
	1    0    0    -1  
$EndComp
$Comp
L power:VCC #PWR0101
U 1 1 5C5C8866
P 4000 1000
F 0 "#PWR0101" H 4000 850 50  0001 C CNN
F 1 "VCC" H 4017 1177 50  0000 C CNN
F 2 "" H 4000 1000 50  0001 C CNN
F 3 "" H 4000 1000 50  0001 C CNN
	1    4000 1000
	1    0    0    -1  
$EndComp
Text GLabel 3550 1100 0    50   Input ~ 0
One_wire_bus
$Comp
L Connector:Screw_Terminal_01x03 J3
U 1 1 5C5C9635
P 4200 1700
F 0 "J3" H 4280 1742 50  0000 L CNN
F 1 "Screw_Terminal_01x03" H 4280 1649 50  0000 L CNN
F 2 "TerminalBlocks_Phoenix:TerminalBlock_Phoenix_MPT-2.54mm_3pol" H 4200 1700 50  0001 C CNN
F 3 "~" H 4200 1700 50  0001 C CNN
	1    4200 1700
	1    0    0    -1  
$EndComp
$Comp
L Adafruit-FONA-800-GSM-Breakout-eagle-import:GND #U0102
U 1 1 5C5C963B
P 4000 1900
F 0 "#U0102" H 4050 1950 50  0001 C CNN
F 1 "GND" H 4081 1936 42  0000 L CNN
F 2 "" H 4000 1900 50  0001 C CNN
F 3 "" H 4000 1900 50  0001 C CNN
	1    4000 1900
	1    0    0    -1  
$EndComp
$Comp
L power:VCC #PWR0102
U 1 1 5C5C9641
P 4000 1600
F 0 "#PWR0102" H 4000 1450 50  0001 C CNN
F 1 "VCC" H 4017 1777 50  0000 C CNN
F 2 "" H 4000 1600 50  0001 C CNN
F 3 "" H 4000 1600 50  0001 C CNN
	1    4000 1600
	1    0    0    -1  
$EndComp
$Comp
L Connector:Screw_Terminal_01x03 J4
U 1 1 5C5C9802
P 4200 2300
F 0 "J4" H 4280 2342 50  0000 L CNN
F 1 "Screw_Terminal_01x03" H 4280 2249 50  0000 L CNN
F 2 "TerminalBlocks_Phoenix:TerminalBlock_Phoenix_MPT-2.54mm_3pol" H 4200 2300 50  0001 C CNN
F 3 "~" H 4200 2300 50  0001 C CNN
	1    4200 2300
	1    0    0    -1  
$EndComp
$Comp
L Adafruit-FONA-800-GSM-Breakout-eagle-import:GND #U0103
U 1 1 5C5C9808
P 4000 2500
F 0 "#U0103" H 4050 2550 50  0001 C CNN
F 1 "GND" H 4081 2536 42  0000 L CNN
F 2 "" H 4000 2500 50  0001 C CNN
F 3 "" H 4000 2500 50  0001 C CNN
	1    4000 2500
	1    0    0    -1  
$EndComp
$Comp
L power:VCC #PWR0103
U 1 1 5C5C980E
P 4000 2200
F 0 "#PWR0103" H 4000 2050 50  0001 C CNN
F 1 "VCC" H 4017 2377 50  0000 C CNN
F 2 "" H 4000 2200 50  0001 C CNN
F 3 "" H 4000 2200 50  0001 C CNN
	1    4000 2200
	1    0    0    -1  
$EndComp
$Comp
L Connector:Screw_Terminal_01x03 J5
U 1 1 5C5C9815
P 4200 2900
F 0 "J5" H 4280 2942 50  0000 L CNN
F 1 "Screw_Terminal_01x03" H 4280 2849 50  0000 L CNN
F 2 "TerminalBlocks_Phoenix:TerminalBlock_Phoenix_MPT-2.54mm_3pol" H 4200 2900 50  0001 C CNN
F 3 "~" H 4200 2900 50  0001 C CNN
	1    4200 2900
	1    0    0    -1  
$EndComp
$Comp
L Adafruit-FONA-800-GSM-Breakout-eagle-import:GND #U0104
U 1 1 5C5C981B
P 4000 3100
F 0 "#U0104" H 4050 3150 50  0001 C CNN
F 1 "GND" H 4081 3136 42  0000 L CNN
F 2 "" H 4000 3100 50  0001 C CNN
F 3 "" H 4000 3100 50  0001 C CNN
	1    4000 3100
	1    0    0    -1  
$EndComp
$Comp
L power:VCC #PWR0104
U 1 1 5C5C9821
P 4000 2800
F 0 "#PWR0104" H 4000 2650 50  0001 C CNN
F 1 "VCC" H 4017 2977 50  0000 C CNN
F 2 "" H 4000 2800 50  0001 C CNN
F 3 "" H 4000 2800 50  0001 C CNN
	1    4000 2800
	1    0    0    -1  
$EndComp
$Comp
L Connector:Screw_Terminal_01x03 J6
U 1 1 5C5C9A50
P 4200 3500
F 0 "J6" H 4280 3542 50  0000 L CNN
F 1 "Screw_Terminal_01x03" H 4280 3449 50  0000 L CNN
F 2 "TerminalBlocks_Phoenix:TerminalBlock_Phoenix_MPT-2.54mm_3pol" H 4200 3500 50  0001 C CNN
F 3 "~" H 4200 3500 50  0001 C CNN
	1    4200 3500
	1    0    0    -1  
$EndComp
$Comp
L Adafruit-FONA-800-GSM-Breakout-eagle-import:GND #U0105
U 1 1 5C5C9A56
P 4000 3700
F 0 "#U0105" H 4050 3750 50  0001 C CNN
F 1 "GND" H 4081 3736 42  0000 L CNN
F 2 "" H 4000 3700 50  0001 C CNN
F 3 "" H 4000 3700 50  0001 C CNN
	1    4000 3700
	1    0    0    -1  
$EndComp
$Comp
L power:VCC #PWR0105
U 1 1 5C5C9A5C
P 4000 3400
F 0 "#PWR0105" H 4000 3250 50  0001 C CNN
F 1 "VCC" H 4017 3577 50  0000 C CNN
F 2 "" H 4000 3400 50  0001 C CNN
F 3 "" H 4000 3400 50  0001 C CNN
	1    4000 3400
	1    0    0    -1  
$EndComp
$Comp
L Connector:Screw_Terminal_01x03 J7
U 1 1 5C5C9A63
P 4200 4100
F 0 "J7" H 4280 4142 50  0000 L CNN
F 1 "Screw_Terminal_01x03" H 4280 4049 50  0000 L CNN
F 2 "TerminalBlocks_Phoenix:TerminalBlock_Phoenix_MPT-2.54mm_3pol" H 4200 4100 50  0001 C CNN
F 3 "~" H 4200 4100 50  0001 C CNN
	1    4200 4100
	1    0    0    -1  
$EndComp
$Comp
L Adafruit-FONA-800-GSM-Breakout-eagle-import:GND #U0106
U 1 1 5C5C9A69
P 4000 4300
F 0 "#U0106" H 4050 4350 50  0001 C CNN
F 1 "GND" H 4081 4336 42  0000 L CNN
F 2 "" H 4000 4300 50  0001 C CNN
F 3 "" H 4000 4300 50  0001 C CNN
	1    4000 4300
	1    0    0    -1  
$EndComp
$Comp
L power:VCC #PWR0106
U 1 1 5C5C9A6F
P 4000 4000
F 0 "#PWR0106" H 4000 3850 50  0001 C CNN
F 1 "VCC" H 4017 4177 50  0000 C CNN
F 2 "" H 4000 4000 50  0001 C CNN
F 3 "" H 4000 4000 50  0001 C CNN
	1    4000 4000
	1    0    0    -1  
$EndComp
Wire Wire Line
	4000 1100 3700 1100
Wire Wire Line
	3700 1100 3700 1700
Wire Wire Line
	3700 3500 4000 3500
Connection ~ 3700 1100
Wire Wire Line
	3700 1100 3550 1100
Wire Wire Line
	4000 2900 3700 2900
Connection ~ 3700 2900
Wire Wire Line
	3700 2900 3700 3500
Wire Wire Line
	4000 2300 3700 2300
Connection ~ 3700 2300
Wire Wire Line
	3700 2300 3700 2900
Wire Wire Line
	4000 1700 3700 1700
Connection ~ 3700 1700
Wire Wire Line
	3700 1700 3700 2300
Wire Wire Line
	4000 4100 3700 4100
Wire Wire Line
	3700 4100 3700 3500
Connection ~ 3700 3500
$Comp
L Adafruit-FONA-800-GSM-Breakout-eagle-import:AUDIO_3.5MMJACK_4POL X1
U 1 1 5C5CA92F
P 6000 1150
F 0 "X1" H 5991 1514 42  0000 C CNN
F 1 "AUDIO_3.5MMJACK_4POL" H 5991 1434 42  0000 C CNN
F 2 "Adafruit-FONA-800-GSM-Breakout:4UCONN_18510" H 6000 1150 50  0001 C CNN
F 3 "" H 6000 1150 50  0001 C CNN
	1    6000 1150
	1    0    0    -1  
$EndComp
$Comp
L power:VCC #PWR0107
U 1 1 5C5CAD22
P 6550 950
F 0 "#PWR0107" H 6550 800 50  0001 C CNN
F 1 "VCC" H 6567 1127 50  0000 C CNN
F 2 "" H 6550 950 50  0001 C CNN
F 3 "" H 6550 950 50  0001 C CNN
	1    6550 950 
	1    0    0    -1  
$EndComp
Text Notes 5650 1000 0    50   ~ 0
3
Text Notes 5650 1150 0    50   ~ 0
2
Text Notes 5650 1250 0    50   ~ 0
4
Text Notes 5650 1400 0    50   ~ 0
1
Text GLabel 7050 1150 2    50   Input ~ 0
SDI-12-BUS
$Comp
L Adafruit-FONA-800-GSM-Breakout-eagle-import:GND #U0107
U 1 1 5C5CBB7F
P 6550 1350
F 0 "#U0107" H 6600 1400 50  0001 C CNN
F 1 "GND" H 6631 1386 42  0000 L CNN
F 2 "" H 6550 1350 50  0001 C CNN
F 3 "" H 6550 1350 50  0001 C CNN
	1    6550 1350
	1    0    0    -1  
$EndComp
Wire Wire Line
	6200 1250 6550 1250
Wire Wire Line
	6200 950  6550 950 
$Comp
L Adafruit-FONA-800-GSM-Breakout-eagle-import:AUDIO_3.5MMJACK_4POL X2
U 1 1 5C5CC658
P 6000 2100
F 0 "X2" H 5991 2464 42  0000 C CNN
F 1 "AUDIO_3.5MMJACK_4POL" H 5991 2384 42  0000 C CNN
F 2 "Adafruit-FONA-800-GSM-Breakout:4UCONN_18510" H 6000 2100 50  0001 C CNN
F 3 "" H 6000 2100 50  0001 C CNN
	1    6000 2100
	1    0    0    -1  
$EndComp
$Comp
L power:VCC #PWR0108
U 1 1 5C5CC65F
P 6550 1900
F 0 "#PWR0108" H 6550 1750 50  0001 C CNN
F 1 "VCC" H 6567 2077 50  0000 C CNN
F 2 "" H 6550 1900 50  0001 C CNN
F 3 "" H 6550 1900 50  0001 C CNN
	1    6550 1900
	1    0    0    -1  
$EndComp
Text Notes 5650 1950 0    50   ~ 0
3
Text Notes 5650 2100 0    50   ~ 0
2
Text Notes 5650 2200 0    50   ~ 0
4
Text Notes 5650 2350 0    50   ~ 0
1
$Comp
L Adafruit-FONA-800-GSM-Breakout-eagle-import:GND #U0108
U 1 1 5C5CC669
P 6550 2300
F 0 "#U0108" H 6600 2350 50  0001 C CNN
F 1 "GND" H 6631 2336 42  0000 L CNN
F 2 "" H 6550 2300 50  0001 C CNN
F 3 "" H 6550 2300 50  0001 C CNN
	1    6550 2300
	1    0    0    -1  
$EndComp
Wire Wire Line
	6200 2200 6550 2200
Wire Wire Line
	6200 1900 6550 1900
$Comp
L Adafruit-FONA-800-GSM-Breakout-eagle-import:AUDIO_3.5MMJACK_4POL X3
U 1 1 5C5CC8ED
P 6000 2950
F 0 "X3" H 5991 3314 42  0000 C CNN
F 1 "AUDIO_3.5MMJACK_4POL" H 5991 3234 42  0000 C CNN
F 2 "Adafruit-FONA-800-GSM-Breakout:4UCONN_18510" H 6000 2950 50  0001 C CNN
F 3 "" H 6000 2950 50  0001 C CNN
	1    6000 2950
	1    0    0    -1  
$EndComp
$Comp
L power:VCC #PWR0109
U 1 1 5C5CC8F4
P 6550 2750
F 0 "#PWR0109" H 6550 2600 50  0001 C CNN
F 1 "VCC" H 6567 2927 50  0000 C CNN
F 2 "" H 6550 2750 50  0001 C CNN
F 3 "" H 6550 2750 50  0001 C CNN
	1    6550 2750
	1    0    0    -1  
$EndComp
Text Notes 5650 2800 0    50   ~ 0
3
Text Notes 5650 2950 0    50   ~ 0
2
Text Notes 5650 3050 0    50   ~ 0
4
Text Notes 5650 3200 0    50   ~ 0
1
$Comp
L Adafruit-FONA-800-GSM-Breakout-eagle-import:GND #U0109
U 1 1 5C5CC8FE
P 6550 3150
F 0 "#U0109" H 6600 3200 50  0001 C CNN
F 1 "GND" H 6631 3186 42  0000 L CNN
F 2 "" H 6550 3150 50  0001 C CNN
F 3 "" H 6550 3150 50  0001 C CNN
	1    6550 3150
	1    0    0    -1  
$EndComp
Wire Wire Line
	6200 3050 6550 3050
Wire Wire Line
	6200 2750 6550 2750
$Comp
L Adafruit-FONA-800-GSM-Breakout-eagle-import:AUDIO_3.5MMJACK_4POL X4
U 1 1 5C5CCAEE
P 6000 3800
F 0 "X4" H 5991 4164 42  0000 C CNN
F 1 "AUDIO_3.5MMJACK_4POL" H 5991 4084 42  0000 C CNN
F 2 "Adafruit-FONA-800-GSM-Breakout:4UCONN_18510" H 6000 3800 50  0001 C CNN
F 3 "" H 6000 3800 50  0001 C CNN
	1    6000 3800
	1    0    0    -1  
$EndComp
$Comp
L power:VCC #PWR0110
U 1 1 5C5CCAF5
P 6550 3600
F 0 "#PWR0110" H 6550 3450 50  0001 C CNN
F 1 "VCC" H 6567 3777 50  0000 C CNN
F 2 "" H 6550 3600 50  0001 C CNN
F 3 "" H 6550 3600 50  0001 C CNN
	1    6550 3600
	1    0    0    -1  
$EndComp
Text Notes 5650 3650 0    50   ~ 0
3
Text Notes 5650 3800 0    50   ~ 0
2
Text Notes 5650 3900 0    50   ~ 0
4
Text Notes 5650 4050 0    50   ~ 0
1
$Comp
L Adafruit-FONA-800-GSM-Breakout-eagle-import:GND #U0110
U 1 1 5C5CCAFF
P 6550 4000
F 0 "#U0110" H 6600 4050 50  0001 C CNN
F 1 "GND" H 6631 4036 42  0000 L CNN
F 2 "" H 6550 4000 50  0001 C CNN
F 3 "" H 6550 4000 50  0001 C CNN
	1    6550 4000
	1    0    0    -1  
$EndComp
Wire Wire Line
	6200 3900 6550 3900
Wire Wire Line
	6200 3600 6550 3600
$Comp
L Adafruit-FONA-800-GSM-Breakout-eagle-import:AUDIO_3.5MMJACK_4POL X5
U 1 1 5C5CCE8D
P 6000 4650
F 0 "X5" H 5991 5014 42  0000 C CNN
F 1 "AUDIO_3.5MMJACK_4POL" H 5991 4934 42  0000 C CNN
F 2 "Adafruit-FONA-800-GSM-Breakout:4UCONN_18510" H 6000 4650 50  0001 C CNN
F 3 "" H 6000 4650 50  0001 C CNN
	1    6000 4650
	1    0    0    -1  
$EndComp
$Comp
L power:VCC #PWR0111
U 1 1 5C5CCE94
P 6550 4450
F 0 "#PWR0111" H 6550 4300 50  0001 C CNN
F 1 "VCC" H 6567 4627 50  0000 C CNN
F 2 "" H 6550 4450 50  0001 C CNN
F 3 "" H 6550 4450 50  0001 C CNN
	1    6550 4450
	1    0    0    -1  
$EndComp
Text Notes 5650 4500 0    50   ~ 0
3
Text Notes 5650 4650 0    50   ~ 0
2
Text Notes 5650 4750 0    50   ~ 0
4
Text Notes 5650 4900 0    50   ~ 0
1
$Comp
L Adafruit-FONA-800-GSM-Breakout-eagle-import:GND #U0111
U 1 1 5C5CCE9E
P 6550 4850
F 0 "#U0111" H 6600 4900 50  0001 C CNN
F 1 "GND" H 6631 4886 42  0000 L CNN
F 2 "" H 6550 4850 50  0001 C CNN
F 3 "" H 6550 4850 50  0001 C CNN
	1    6550 4850
	1    0    0    -1  
$EndComp
Wire Wire Line
	6200 4750 6550 4750
Wire Wire Line
	6200 4450 6550 4450
$Comp
L Adafruit-FONA-800-GSM-Breakout-eagle-import:AUDIO_3.5MMJACK_4POL X6
U 1 1 5C5CD1A2
P 6000 5500
F 0 "X6" H 5991 5864 42  0000 C CNN
F 1 "AUDIO_3.5MMJACK_4POL" H 5991 5784 42  0000 C CNN
F 2 "Adafruit-FONA-800-GSM-Breakout:4UCONN_18510" H 6000 5500 50  0001 C CNN
F 3 "" H 6000 5500 50  0001 C CNN
	1    6000 5500
	1    0    0    -1  
$EndComp
$Comp
L power:VCC #PWR0112
U 1 1 5C5CD1A9
P 6550 5300
F 0 "#PWR0112" H 6550 5150 50  0001 C CNN
F 1 "VCC" H 6567 5477 50  0000 C CNN
F 2 "" H 6550 5300 50  0001 C CNN
F 3 "" H 6550 5300 50  0001 C CNN
	1    6550 5300
	1    0    0    -1  
$EndComp
Text Notes 5650 5350 0    50   ~ 0
3
Text Notes 5650 5500 0    50   ~ 0
2
Text Notes 5650 5600 0    50   ~ 0
4
Text Notes 5650 5750 0    50   ~ 0
1
$Comp
L Adafruit-FONA-800-GSM-Breakout-eagle-import:GND #U0112
U 1 1 5C5CD1B3
P 6550 5700
F 0 "#U0112" H 6600 5750 50  0001 C CNN
F 1 "GND" H 6631 5736 42  0000 L CNN
F 2 "" H 6550 5700 50  0001 C CNN
F 3 "" H 6550 5700 50  0001 C CNN
	1    6550 5700
	1    0    0    -1  
$EndComp
Wire Wire Line
	6200 5600 6550 5600
Wire Wire Line
	6200 5300 6550 5300
Wire Wire Line
	6200 2100 6950 2100
Wire Wire Line
	6950 2100 6950 1150
Connection ~ 6950 1150
Wire Wire Line
	6950 1150 7050 1150
Wire Wire Line
	6250 2950 6950 2950
Connection ~ 6950 2100
Wire Wire Line
	6200 3800 6950 3800
Wire Wire Line
	6950 2100 6950 2950
Connection ~ 6950 2950
Wire Wire Line
	6950 2950 6950 3800
Wire Wire Line
	6200 4650 6950 4650
Wire Wire Line
	6950 4650 6950 3800
Connection ~ 6950 3800
Wire Wire Line
	6200 5500 6950 5500
Wire Wire Line
	6950 5500 6950 4650
Connection ~ 6950 4650
$Comp
L Connector:Conn_01x01 3XAA1
U 1 1 5C5CFEFD
P 1300 1150
F 0 "3XAA1" H 1218 919 50  0000 C CNN
F 1 "Conn_01x01" H 1218 1012 50  0000 C CNN
F 2 "Pin_Headers:Pin_Header_Straight_1x01_Pitch2.54mm" H 1300 1150 50  0001 C CNN
F 3 "~" H 1300 1150 50  0001 C CNN
	1    1300 1150
	-1   0    0    1   
$EndComp
$Comp
L Connector:Conn_01x01 GNDAA1
U 1 1 5C5CFFF2
P 1300 1650
F 0 "GNDAA1" H 1218 1419 50  0000 C CNN
F 1 "Conn_01x01" H 1218 1512 50  0000 C CNN
F 2 "Pin_Headers:Pin_Header_Straight_1x01_Pitch2.54mm" H 1300 1650 50  0001 C CNN
F 3 "~" H 1300 1650 50  0001 C CNN
	1    1300 1650
	-1   0    0    1   
$EndComp
Wire Wire Line
	1500 1150 1900 1150
$Comp
L Adafruit-FONA-800-GSM-Breakout-eagle-import:GND #U0113
U 1 1 5C5D0BFE
P 1500 1750
F 0 "#U0113" H 1550 1800 50  0001 C CNN
F 1 "GND" H 1581 1786 42  0000 L CNN
F 2 "" H 1500 1750 50  0001 C CNN
F 3 "" H 1500 1750 50  0001 C CNN
	1    1500 1750
	1    0    0    -1  
$EndComp
$Comp
L Connector:Conn_01x16 J9
U 1 1 5C5C9BA9
P 8250 3000
F 0 "J9" H 8330 2992 50  0000 L CNN
F 1 "Conn_01x16" H 8330 2899 50  0000 L CNN
F 2 "Pin_Headers:Pin_Header_Straight_1x16_Pitch2.54mm" H 8250 3000 50  0001 C CNN
F 3 "~" H 8250 3000 50  0001 C CNN
	1    8250 3000
	1    0    0    -1  
$EndComp
$Comp
L Connector:Conn_01x12 J10
U 1 1 5C5C9CCD
P 10300 3300
F 0 "J10" H 10218 2469 50  0000 C CNN
F 1 "Conn_01x12" H 10218 2562 50  0000 C CNN
F 2 "Pin_Headers:Pin_Header_Straight_1x12_Pitch2.54mm" H 10300 3300 50  0001 C CNN
F 3 "~" H 10300 3300 50  0001 C CNN
	1    10300 3300
	-1   0    0    1   
$EndComp
$Comp
L Proto_FeatherWing-eagle-import:FEATHERWING_NODIM MS1
U 1 1 5C5CC9A2
P 8600 2100
F 0 "MS1" H 8600 2100 50  0001 C CNN
F 1 "FEATHERWING_NODIM" H 8600 2100 50  0001 C CNN
F 2 "" H 8600 2100 50  0001 C CNN
F 3 "" H 8600 2100 50  0001 C CNN
	1    8600 2100
	0    1    1    0   
$EndComp
Text GLabel 10500 3000 2    50   Input ~ 0
One_wire_bus
Text GLabel 10500 2900 2    50   Input ~ 0
SDI-12-BUS
Wire Wire Line
	6200 1150 6950 1150
$Comp
L Adafruit-FONA-800-GSM-Breakout-eagle-import:GND #U?
U 1 1 5C5CE251
P 7750 2700
F 0 "#U?" H 7800 2750 50  0001 C CNN
F 1 "GND" H 7831 2736 42  0000 L CNN
F 2 "" H 7750 2700 50  0001 C CNN
F 3 "" H 7750 2700 50  0001 C CNN
	1    7750 2700
	1    0    0    -1  
$EndComp
Wire Wire Line
	8050 2600 7750 2600
Wire Wire Line
	8050 2400 7700 2400
Wire Wire Line
	7700 2400 7700 2250
$Comp
L device:Q_PMOS_DGS Q?
U 1 1 5C5CF444
P 2300 6200
F 0 "Q?" H 2506 6247 50  0000 L CNN
F 1 "Q_PMOS_DGS" H 2506 6154 50  0000 L CNN
F 2 "" H 2500 6300 50  0001 C CNN
F 3 "" H 2300 6200 50  0001 C CNN
	1    2300 6200
	1    0    0    -1  
$EndComp
$Comp
L device:R R?
U 1 1 5C5D07E9
P 1900 6950
F 0 "R?" H 1970 6997 50  0000 L CNN
F 1 "R" H 1970 6904 50  0000 L CNN
F 2 "" V 1830 6950 50  0001 C CNN
F 3 "" H 1900 6950 50  0001 C CNN
	1    1900 6950
	1    0    0    -1  
$EndComp
$Comp
L Adafruit-FONA-800-GSM-Breakout-eagle-import:GND #U?
U 1 1 5C5D084D
P 1900 7300
F 0 "#U?" H 1950 7350 50  0001 C CNN
F 1 "GND" H 1981 7336 42  0000 L CNN
F 2 "" H 1900 7300 50  0001 C CNN
F 3 "" H 1900 7300 50  0001 C CNN
	1    1900 7300
	1    0    0    -1  
$EndComp
$Comp
L device:C C?
U 1 1 5C5D1A73
P 2600 6950
F 0 "C?" H 2715 6997 50  0000 L CNN
F 1 "C" H 2715 6904 50  0000 L CNN
F 2 "" H 2638 6800 50  0001 C CNN
F 3 "" H 2600 6950 50  0001 C CNN
	1    2600 6950
	1    0    0    -1  
$EndComp
$Comp
L Adafruit-FONA-800-GSM-Breakout-eagle-import:GND #U?
U 1 1 5C5D2472
P 2600 7300
F 0 "#U?" H 2650 7350 50  0001 C CNN
F 1 "GND" H 2681 7336 42  0000 L CNN
F 2 "" H 2600 7300 50  0001 C CNN
F 3 "" H 2600 7300 50  0001 C CNN
	1    2600 7300
	1    0    0    -1  
$EndComp
Wire Wire Line
	1900 7200 1900 7100
Wire Wire Line
	2600 7100 2600 7200
Wire Wire Line
	2600 6800 2600 6650
Text GLabel 1900 5850 0    50   Input ~ 0
VBUS
$Comp
L device:D D?
U 1 1 5C5D8F1F
P 2200 6650
F 0 "D?" H 2200 6431 50  0000 C CNN
F 1 "D" H 2200 6524 50  0000 C CNN
F 2 "" H 2200 6650 50  0001 C CNN
F 3 "" H 2200 6650 50  0001 C CNN
	1    2200 6650
	-1   0    0    1   
$EndComp
Wire Wire Line
	2050 6650 1900 6650
Connection ~ 1900 6650
Wire Wire Line
	1900 6650 1900 6800
Wire Wire Line
	2350 6650 2400 6650
Connection ~ 2600 6650
Wire Wire Line
	1900 5850 1900 6200
Wire Wire Line
	2100 6200 1900 6200
Connection ~ 1900 6200
Wire Wire Line
	1900 6200 1900 6650
Wire Wire Line
	2400 6400 2400 6650
Connection ~ 2400 6650
Wire Wire Line
	2400 6650 2600 6650
$Comp
L Connector:VX7805 U?
U 1 1 5C5DCF4F
P 3500 6500
F 0 "U?" V 3591 6269 50  0000 R CNN
F 1 "VX7805" V 3498 6269 50  0000 R CNN
F 2 "" H 3500 6500 50  0001 C CNN
F 3 "" H 3500 6500 50  0001 C CNN
	1    3500 6500
	0    -1   -1   0   
$EndComp
Wire Wire Line
	2600 6650 3400 6650
$Comp
L Adafruit-FONA-800-GSM-Breakout-eagle-import:GND #U?
U 1 1 5C5DF671
P 3500 7300
F 0 "#U?" H 3550 7350 50  0001 C CNN
F 1 "GND" H 3581 7336 42  0000 L CNN
F 2 "" H 3500 7300 50  0001 C CNN
F 3 "" H 3500 7300 50  0001 C CNN
	1    3500 7300
	1    0    0    -1  
$EndComp
Wire Wire Line
	3500 6650 3500 7200
Wire Wire Line
	3600 6650 4150 6650
$Comp
L device:Q_PMOS_DGS Q?
U 1 1 5C5E1200
P 2300 5500
F 0 "Q?" H 2506 5547 50  0000 L CNN
F 1 "Q_PMOS_DGS" H 2506 5454 50  0000 L CNN
F 2 "" H 2500 5600 50  0001 C CNN
F 3 "" H 2300 5500 50  0001 C CNN
	1    2300 5500
	1    0    0    -1  
$EndComp
Text GLabel 1300 5100 0    50   Input ~ 0
VBAT
$Comp
L device:R R?
U 1 1 5C5E58CB
P 1300 6950
F 0 "R?" H 1370 6997 50  0000 L CNN
F 1 "R" H 1370 6904 50  0000 L CNN
F 2 "" V 1230 6950 50  0001 C CNN
F 3 "" H 1300 6950 50  0001 C CNN
	1    1300 6950
	1    0    0    -1  
$EndComp
$Comp
L Adafruit-FONA-800-GSM-Breakout-eagle-import:GND #U?
U 1 1 5C5E5921
P 1300 7300
F 0 "#U?" H 1350 7350 50  0001 C CNN
F 1 "GND" H 1381 7336 42  0000 L CNN
F 2 "" H 1300 7300 50  0001 C CNN
F 3 "" H 1300 7300 50  0001 C CNN
	1    1300 7300
	1    0    0    -1  
$EndComp
Wire Wire Line
	1300 7200 1300 7100
$Comp
L device:D D?
U 1 1 5C5EA1F4
P 1600 5500
F 0 "D?" H 1600 5281 50  0000 C CNN
F 1 "D" H 1600 5374 50  0000 C CNN
F 2 "" H 1600 5500 50  0001 C CNN
F 3 "" H 1600 5500 50  0001 C CNN
	1    1600 5500
	-1   0    0    1   
$EndComp
Text GLabel 2400 5050 2    50   Input ~ 0
AA_BATT
Text GLabel 1900 1150 2    50   Input ~ 0
AA_BATT
$Comp
L power:+3V3 #PWR?
U 1 1 5C5FFADD
P 4150 6650
F 0 "#PWR?" H 4150 6500 50  0001 C CNN
F 1 "+3V3" H 4165 6827 50  0000 C CNN
F 2 "" H 4150 6650 50  0001 C CNN
F 3 "" H 4150 6650 50  0001 C CNN
	1    4150 6650
	1    0    0    -1  
$EndComp
Text Notes 3250 6100 0    50   ~ 0
3v3 Switch Reg
$Comp
L power:+3V3 #PWR?
U 1 1 5C5FFD30
P 7700 2250
F 0 "#PWR?" H 7700 2100 50  0001 C CNN
F 1 "+3V3" H 7715 2427 50  0000 C CNN
F 2 "" H 7700 2250 50  0001 C CNN
F 3 "" H 7700 2250 50  0001 C CNN
	1    7700 2250
	1    0    0    -1  
$EndComp
Wire Wire Line
	1450 5500 1300 5500
Wire Wire Line
	1300 5500 1300 6800
Wire Wire Line
	1750 5500 2100 5500
Wire Wire Line
	2400 6000 2400 5700
Wire Wire Line
	2400 5300 2400 5050
Wire Wire Line
	1300 5500 1300 5100
Connection ~ 1300 5500
Text Notes 3050 5800 0    50   ~ 0
... maybe need to switch regulator on/off with EN, too?\n
$EndSCHEMATC
