G04 #@! TF.GenerationSoftware,KiCad,Pcbnew,5.0.0-fee4fd1~65~ubuntu17.10.1*
G04 #@! TF.CreationDate,2019-02-12T18:28:40-05:00*
G04 #@! TF.ProjectId,feather-decagon,666561746865722D64656361676F6E2E,rev?*
G04 #@! TF.SameCoordinates,Original*
G04 #@! TF.FileFunction,Soldermask,Bot*
G04 #@! TF.FilePolarity,Negative*
%FSLAX46Y46*%
G04 Gerber Fmt 4.6, Leading zero omitted, Abs format (unit mm)*
G04 Created by KiCad (PCBNEW 5.0.0-fee4fd1~65~ubuntu17.10.1) date Tue Feb 12 18:28:40 2019*
%MOMM*%
%LPD*%
G01*
G04 APERTURE LIST*
%ADD10R,1.920000X1.920000*%
%ADD11C,1.920000*%
%ADD12R,2.200000X2.200000*%
%ADD13O,2.200000X2.200000*%
%ADD14R,2.100000X2.100000*%
%ADD15C,2.800000*%
%ADD16O,2.800000X2.800000*%
%ADD17O,2.100000X2.100000*%
G04 APERTURE END LIST*
D10*
G04 #@! TO.C,Q3*
X114810000Y-61180000D03*
D11*
X119890000Y-61180000D03*
X117350000Y-58640000D03*
G04 #@! TD*
D12*
G04 #@! TO.C,Q2*
X64410000Y-50270000D03*
D13*
X64410000Y-47730000D03*
X64410000Y-45190000D03*
G04 #@! TD*
D14*
G04 #@! TO.C,DATA2*
X106157000Y-47358000D03*
G04 #@! TD*
G04 #@! TO.C,5V2*
X99172000Y-51803000D03*
G04 #@! TD*
G04 #@! TO.C,GND2*
X106157000Y-51803000D03*
G04 #@! TD*
G04 #@! TO.C,DATA1*
X85439000Y-47601000D03*
G04 #@! TD*
G04 #@! TO.C,GND1*
X85439000Y-52173000D03*
G04 #@! TD*
G04 #@! TO.C,5V1*
X78454000Y-52173000D03*
G04 #@! TD*
D11*
G04 #@! TO.C,Q1*
X66100000Y-65390000D03*
X63560000Y-62850000D03*
D10*
X68640000Y-62850000D03*
G04 #@! TD*
D15*
G04 #@! TO.C,R3*
X127000000Y-77720000D03*
D16*
X111760000Y-77720000D03*
G04 #@! TD*
G04 #@! TO.C,R2*
X58990000Y-88620000D03*
D15*
X58990000Y-73380000D03*
G04 #@! TD*
D16*
G04 #@! TO.C,R4*
X126360000Y-64310000D03*
D15*
X126360000Y-49070000D03*
G04 #@! TD*
D13*
G04 #@! TO.C,Q4*
X118230000Y-45080000D03*
X118230000Y-47620000D03*
D12*
X118230000Y-50160000D03*
G04 #@! TD*
D15*
G04 #@! TO.C,R1*
X56820000Y-63070000D03*
D16*
X56820000Y-47830000D03*
G04 #@! TD*
D17*
G04 #@! TO.C,J1*
X106300612Y-91637788D03*
X103760612Y-91637788D03*
X101220612Y-91637788D03*
X98680612Y-91637788D03*
X96140612Y-91637788D03*
X93600612Y-91637788D03*
X91060612Y-91637788D03*
X88520612Y-91637788D03*
X85980612Y-91637788D03*
X83440612Y-91637788D03*
X80900612Y-91637788D03*
X78360612Y-91637788D03*
X75820612Y-91637788D03*
X73280612Y-91637788D03*
X70740612Y-91637788D03*
D14*
X68200612Y-91637788D03*
G04 #@! TD*
D17*
G04 #@! TO.C,J2*
X78360612Y-71317788D03*
X80900612Y-71317788D03*
X83440612Y-71317788D03*
X85980612Y-71317788D03*
X88520612Y-71317788D03*
X91060612Y-71317788D03*
X93600612Y-71317788D03*
X96140612Y-71317788D03*
X98680612Y-71317788D03*
X101220612Y-71317788D03*
X103760612Y-71317788D03*
D14*
X106300612Y-71317788D03*
G04 #@! TD*
M02*
