(module FEATHERWING (layer F.Cu) (tedit 0)
  (fp_text reference MS1 (at 0 0) (layer F.SilkS) hide
    (effects (font (size 1.27 1.27) (thickness 0.15)))
  )
  (fp_text value FEATHERWING (at 0 0) (layer F.SilkS) hide
    (effects (font (size 1.27 1.27) (thickness 0.15)))
  )
  (fp_line (start 2.54 0) (end 48.26 0) (layer Edge.Cuts) (width 0))
  (fp_arc (start 48.26 -2.54) (end 48.26 0) (angle -90) (layer Edge.Cuts) (width 0))
  (fp_line (start 50.8 -2.54) (end 50.8 -20.32) (layer Edge.Cuts) (width 0))
  (fp_arc (start 48.26 -20.32) (end 50.8 -20.32) (angle -90) (layer Edge.Cuts) (width 0))
  (fp_line (start 48.26 -22.86) (end 2.54 -22.86) (layer Edge.Cuts) (width 0))
  (fp_arc (start 2.54 -20.32) (end 2.54 -22.86) (angle -90) (layer Edge.Cuts) (width 0))
  (fp_line (start 0 -20.32) (end 0 -2.54) (layer Edge.Cuts) (width 0))
  (fp_arc (start 2.54 -2.54) (end 0 -2.54) (angle -90) (layer Edge.Cuts) (width 0))
  (pad "" np_thru_hole circle (at 48.26 -20.32) (size 2.54 2.54) (drill 2.54) (layers *.Cu))
  (pad "" np_thru_hole circle (at 48.26 -2.54) (size 2.54 2.54) (drill 2.54) (layers *.Cu))
  (pad P$1 thru_hole circle (at 2.54 -20.32) (size 3.81 3.81) (drill 2.5) (layers *.Cu *.Mask)
    (solder_mask_margin 0.0508))
  (pad P$2 thru_hole circle (at 2.54 -2.54) (size 3.81 3.81) (drill 2.5) (layers *.Cu *.Mask)
    (solder_mask_margin 0.0508))
  (pad 28 thru_hole circle (at 16.51 -21.59) (size 1.778 1.778) (drill 1) (layers *.Cu *.Mask)
    (solder_mask_margin 0.0508))
  (pad 27 thru_hole circle (at 19.05 -21.59) (size 1.778 1.778) (drill 1) (layers *.Cu *.Mask)
    (solder_mask_margin 0.0508))
  (pad 26 thru_hole circle (at 21.59 -21.59) (size 1.778 1.778) (drill 1) (layers *.Cu *.Mask)
    (solder_mask_margin 0.0508))
  (pad 25 thru_hole circle (at 24.13 -21.59) (size 1.778 1.778) (drill 1) (layers *.Cu *.Mask)
    (solder_mask_margin 0.0508))
  (pad 24 thru_hole circle (at 26.67 -21.59) (size 1.778 1.778) (drill 1) (layers *.Cu *.Mask)
    (solder_mask_margin 0.0508))
  (pad 23 thru_hole circle (at 29.21 -21.59) (size 1.778 1.778) (drill 1) (layers *.Cu *.Mask)
    (solder_mask_margin 0.0508))
  (pad 22 thru_hole circle (at 31.75 -21.59) (size 1.778 1.778) (drill 1) (layers *.Cu *.Mask)
    (solder_mask_margin 0.0508))
  (pad 21 thru_hole circle (at 34.29 -21.59) (size 1.778 1.778) (drill 1) (layers *.Cu *.Mask)
    (solder_mask_margin 0.0508))
  (pad 20 thru_hole circle (at 36.83 -21.59) (size 1.778 1.778) (drill 1) (layers *.Cu *.Mask)
    (solder_mask_margin 0.0508))
  (pad 19 thru_hole circle (at 39.37 -21.59) (size 1.778 1.778) (drill 1) (layers *.Cu *.Mask)
    (solder_mask_margin 0.0508))
  (pad 18 thru_hole circle (at 41.91 -21.59) (size 1.778 1.778) (drill 1) (layers *.Cu *.Mask)
    (solder_mask_margin 0.0508))
  (pad 17 thru_hole circle (at 44.45 -21.59) (size 1.778 1.778) (drill 1) (layers *.Cu *.Mask)
    (solder_mask_margin 0.0508))
  (pad 5 thru_hole circle (at 16.51 -1.27) (size 1.778 1.778) (drill 1) (layers *.Cu *.Mask)
    (solder_mask_margin 0.0508))
  (pad 6 thru_hole circle (at 19.05 -1.27) (size 1.778 1.778) (drill 1) (layers *.Cu *.Mask)
    (solder_mask_margin 0.0508))
  (pad 7 thru_hole circle (at 21.59 -1.27) (size 1.778 1.778) (drill 1) (layers *.Cu *.Mask)
    (solder_mask_margin 0.0508))
  (pad 8 thru_hole circle (at 24.13 -1.27) (size 1.778 1.778) (drill 1) (layers *.Cu *.Mask)
    (solder_mask_margin 0.0508))
  (pad 9 thru_hole circle (at 26.67 -1.27) (size 1.778 1.778) (drill 1) (layers *.Cu *.Mask)
    (solder_mask_margin 0.0508))
  (pad 10 thru_hole circle (at 29.21 -1.27) (size 1.778 1.778) (drill 1) (layers *.Cu *.Mask)
    (solder_mask_margin 0.0508))
  (pad 11 thru_hole circle (at 31.75 -1.27) (size 1.778 1.778) (drill 1) (layers *.Cu *.Mask)
    (solder_mask_margin 0.0508))
  (pad 12 thru_hole circle (at 34.29 -1.27) (size 1.778 1.778) (drill 1) (layers *.Cu *.Mask)
    (solder_mask_margin 0.0508))
  (pad 13 thru_hole circle (at 36.83 -1.27) (size 1.778 1.778) (drill 1) (layers *.Cu *.Mask)
    (solder_mask_margin 0.0508))
  (pad 14 thru_hole circle (at 39.37 -1.27) (size 1.778 1.778) (drill 1) (layers *.Cu *.Mask)
    (solder_mask_margin 0.0508))
  (pad 15 thru_hole circle (at 41.91 -1.27) (size 1.778 1.778) (drill 1) (layers *.Cu *.Mask)
    (solder_mask_margin 0.0508))
  (pad 16 thru_hole circle (at 44.45 -1.27) (size 1.778 1.778) (drill 1) (layers *.Cu *.Mask)
    (solder_mask_margin 0.0508))
  (pad 4 thru_hole circle (at 13.97 -1.27) (size 1.778 1.778) (drill 1) (layers *.Cu *.Mask)
    (solder_mask_margin 0.0508))
  (pad 3 thru_hole circle (at 11.43 -1.27) (size 1.778 1.778) (drill 1) (layers *.Cu *.Mask)
    (solder_mask_margin 0.0508))
  (pad 2 thru_hole circle (at 8.89 -1.27) (size 1.778 1.778) (drill 1) (layers *.Cu *.Mask)
    (solder_mask_margin 0.0508))
  (pad 1 thru_hole circle (at 6.35 -1.27) (size 1.778 1.778) (drill 1) (layers *.Cu *.Mask)
    (solder_mask_margin 0.0508))
)
