(module MOUNTINGHOLE_2.5_PLATED (layer F.Cu) (tedit 0)
  (fp_text reference U$34 (at 0 0) (layer F.SilkS) hide
    (effects (font (size 1.27 1.27) (thickness 0.15)))
  )
  (fp_text value MOUNTINGHOLE2.5 (at 0 0) (layer F.SilkS) hide
    (effects (font (size 1.27 1.27) (thickness 0.15)))
  )
  (fp_circle (center 0 0) (end 2 0) (layer F.SilkS) (width 0.2032))
  (fp_circle (center 0 0) (end 1 0) (layer Dwgs.User) (width 2.032))
  (fp_circle (center 0 0) (end 1 0) (layer Dwgs.User) (width 2.032))
  (fp_circle (center 0 0) (end 1 0) (layer Dwgs.User) (width 2.032))
  (fp_circle (center 0 0) (end 1 0) (layer Dwgs.User) (width 2.032))
  (pad P$1 thru_hole circle (at 0 0) (size 3.2 3.2) (drill 2.5) (layers *.Cu *.Mask)
    (solder_mask_margin 0.0508))
)
