(module RESPACK_4X0603 (layer F.Cu) (tedit 0)
  (fp_text reference C17 (at -1.6 -1.6) (layer F.SilkS)
    (effects (font (size 0.77216 0.77216) (thickness 0.138988)) (justify left bottom))
  )
  (fp_text value 10pF (at -1.6 2.4) (layer F.SilkS)
    (effects (font (size 0.38608 0.38608) (thickness 0.038608)) (justify left bottom))
  )
  (fp_line (start -1.6 -0.8) (end 1.6 -0.8) (layer F.Fab) (width 0.2032))
  (fp_line (start 1.6 -0.8) (end 1.6 0.8) (layer F.Fab) (width 0.2032))
  (fp_line (start 1.6 0.8) (end -1.6 0.8) (layer F.Fab) (width 0.2032))
  (fp_line (start -1.6 0.8) (end -1.6 -0.8) (layer F.Fab) (width 0.2032))
  (fp_line (start -1.9 -1.4) (end 1.9 -1.4) (layer Dwgs.User) (width 0.127))
  (fp_line (start 1.9 -1.4) (end 1.9 1.4) (layer Dwgs.User) (width 0.127))
  (fp_line (start -1.9 1.4) (end -1.9 -1.4) (layer Dwgs.User) (width 0.127))
  (fp_line (start 1.9 -1.4) (end 1.9 1.4) (layer F.SilkS) (width 0.2032))
  (fp_line (start -1.9 1.4) (end -1.9 -1.4) (layer F.SilkS) (width 0.2032))
  (fp_poly (pts (xy -1.55 0.5) (xy 1.55 0.5) (xy 1.55 -0.5) (xy -1.55 -0.5)) (layer F.Fab) (width 0))
  (fp_line (start -1.9 1.4) (end 1.9 1.4) (layer Dwgs.User) (width 0.127))
  (pad 8 smd rect (at -1.3 -0.85) (size 0.45 0.9) (layers F.Cu F.Paste F.Mask)
    (solder_mask_margin 0.0508))
  (pad 1 smd rect (at -1.3 0.85) (size 0.45 0.9) (layers F.Cu F.Paste F.Mask)
    (solder_mask_margin 0.0508))
  (pad 7 smd rect (at -0.4 -0.85) (size 0.45 0.9) (layers F.Cu F.Paste F.Mask)
    (solder_mask_margin 0.0508))
  (pad 6 smd rect (at 0.4 -0.85) (size 0.45 0.9) (layers F.Cu F.Paste F.Mask)
    (solder_mask_margin 0.0508))
  (pad 5 smd rect (at 1.3 -0.85) (size 0.45 0.9) (layers F.Cu F.Paste F.Mask)
    (solder_mask_margin 0.0508))
  (pad 4 smd rect (at 1.3 0.85) (size 0.45 0.9) (layers F.Cu F.Paste F.Mask)
    (solder_mask_margin 0.0508))
  (pad 2 smd rect (at -0.4 0.85) (size 0.45 0.9) (layers F.Cu F.Paste F.Mask)
    (solder_mask_margin 0.0508))
  (pad 3 smd rect (at 0.4 0.85) (size 0.45 0.9) (layers F.Cu F.Paste F.Mask)
    (solder_mask_margin 0.0508))
)
