(module SOD-323 (layer F.Cu) (tedit 0)
  (descr "<b>SOD323</b> (2.5x1.2mm)")
  (fp_text reference D6 (at -1.1 -1) (layer F.SilkS)
    (effects (font (size 0.77216 0.77216) (thickness 0.138988)) (justify left bottom))
  )
  (fp_text value 1N4148 (at -1.1 1.792) (layer F.Fab)
    (effects (font (size 0.77216 0.77216) (thickness 0.077216)) (justify left bottom))
  )
  (fp_line (start -1 -0.7) (end 1 -0.7) (layer F.SilkS) (width 0.2032))
  (fp_line (start 1 -0.7) (end 1 0.7) (layer F.Fab) (width 0.2032))
  (fp_line (start 1 0.7) (end -1 0.7) (layer F.SilkS) (width 0.2032))
  (fp_line (start -1 0.7) (end -1 -0.7) (layer F.Fab) (width 0.2032))
  (fp_line (start -0.25 0) (end 0.35 -0.4) (layer F.SilkS) (width 0.2032))
  (fp_line (start 0.35 -0.4) (end 0.35 0.4) (layer F.SilkS) (width 0.2032))
  (fp_line (start 0.35 0.4) (end -0.25 0) (layer F.SilkS) (width 0.2032))
  (fp_poly (pts (xy -0.45 0.5) (xy -0.25 0.5) (xy -0.25 -0.5) (xy -0.45 -0.5)) (layer F.SilkS) (width 0))
  (fp_poly (pts (xy -0.1 0) (xy 0.2 -0.2) (xy 0.2 0.2)) (layer F.SilkS) (width 0))
  (pad C smd rect (at -1.27 0) (size 1.35 0.8) (layers F.Cu F.Paste F.Mask)
    (solder_mask_margin 0.0508))
  (pad A smd rect (at 1.27 0) (size 1.35 0.8) (layers F.Cu F.Paste F.Mask)
    (solder_mask_margin 0.0508))
)
